// Evol scripts.
// Author:
//    Ablu
// Description:
//    Jumping piou.

001-2-24,27,23,4	script	#piourocketArtis	NPC_PIOU_ROCKET,{
    .dir = 2;
    stopnpctimer;
    initnpctimer;
    close;

OnTimer1420:
    .dir = 4;
    stopnpctimer;
    end;

OnInit:
    .distance = 3;
    end;
}
