000-0 1
000-1 2
001-1 3
000-0-0 4
000-2-0 5
000-2-1 6
000-2-2 7
000-2-3 8
001-2-0 9
001-2-2 10
001-2-3 11
001-2-4 12
001-2-5 13
001-2-6 14
001-2-7 15
001-2-8 16
001-2-9 17
001-2-10 18
001-2-12 19
001-2-13 20
001-2-14 21
001-2-15 22
001-2-16 23
001-2-17 24
test 25
001-2-1 26
001-2-18 27
001-2-19 28
001-2-20 29
001-2-21 30
001-2-22 31
001-2-23 32
001-2-24 33
001-2-11 34
001-2-25 35
001-2-26 36
001-2-27 37
testbg 38
001-2-28 39
001-2-29 40
001-2-30 41
001-2-31 42
001-2-32 43
001-2-33 44
001-2-34 45
001-2-35 46
001-2-36 47
001-2-37 48
001-2-38 49
000-2-4 50
001-2-39 51
001-2-40 52
000-0-1 53
001-2-41 54
