// Map 001-2-33: Artis, Legion of Aemil Headquarters
001-2-33,34,47,0	warp	ToArtis#001-2-33	0,0,001-1,57,42
001-2-33,23,30,0	warp	ToLeftDormroom#001-2-33	0,0,001-2-37,36,28
001-2-33,45,30,0	warp	ToRightDormroom#001-2-33	0,0,001-2-38,24,28
001-2-33,25,40,0	warp	ToLeftPvP#001-2-33	1,0,001-2-40,27,46
001-2-33,43,40,0	warp	ToRightPvP#001-2-33	1,0,001-2-40,45,46
